Klasse;KatalogNr;Nachname;Vorname;GeburtsDatum;m/w
3AHIF;1;Forster;Sabrina;26.02.98;w
3AHIF;2;Friedrich;Blanca;24.09.97;w
3AHIF;3;Froschauer;Felix Franz;29.07.98;m
3AHIF;4;Furtak;Stefanie;16.09.97;w
3AHIF;5;Gaisch;Laurenz;07.06.98;m
3AHIF;6;Giurca;Alexander;08.04.98;w
3AHIF;7;Gnadlinger;Johannes Simon;20.08.97;m
3AHIF;8;Hermüller;Philipp;01.02.98;m
3AHIF;9;Isa;Adrian;13.12.95;m
3AHIF;10;Korthauer;Lucas;15.07.97;m
3AHIF;11;Mayrhofer;Andreas;19.07.98;m
3AHIF;12;Melhorn;Tobias;08.09.97;m
3AHIF;13;Mosquera;Ralph Laurenz;20.08.94;m
3AHIF;14;Müller;Jonas Michael;26.06.96;m
3AHIF;15;Pautz;Marcel Gerhard;17.04.97;m
3AHIF;16;Pohn;Patrick;26.03.98;m
3AHIF;17;Pühringer;Iris;27.05.98;w
3AHIF;18;Rudelsdorfer;Leonie;17.03.98;w
3AHIF;19;Saiz;Daniel;23.11.97;m
3AHIF;20;Steininger;Philipp Alexander;14.09.97;m
3AHIF;21;Stelzmüller;Christopher;29.09.97;m
3AHIF;22;Tanzer;Sebastian;02.06.98;m
3AHIF;23;Weigl;Mario;08.04.98;m